<?xml version="1.0" encoding="utf-8"?>
<!-- Generator: Adobe Illustrator 26.2.1, SVG Export Plug-In . SVG Version: 6.00 Build 0)  -->
<svg version="1.1" id="Layer_1" xmlns="http://www.w3.org/2000/svg" xmlns:xlink="http://www.w3.org/1999/xlink" x="0px" y="0px"
	 viewBox="0 0 512 512" style="enable-background:new 0 0 512 512;" xml:space="preserve">
<g>
	<path d="M287.6,458H118.4V54h169.2c4.4,0,7.9-3.6,7.9-7.9V7.9c0-4.4-3.6-7.9-7.9-7.9H91.4c-14.9,0-27,12.1-27,27v458
		c0,14.9,12.1,27,27,27h196.2c4.4,0,7.9-3.6,7.9-7.9v-38.1C295.6,461.6,292,458,287.6,458z"/>
	<path d="M440,237.6L352,149.7c-3.7-3.7-9.7-3.7-13.4,0l-23.4,23.4c-3.7,3.7-3.7,9.7,0,13.4l40.3,40.3H201.8c-4.7,0-8.6,3.8-8.6,8.6
		v36.9c0,4.7,3.8,8.6,8.6,8.6H360l-44.8,44.8c-3.7,3.7-3.7,9.7,0,13.4l23.4,23.4c3.7,3.7,9.7,3.7,13.4,0l87.9-87.9
		C450.1,264.2,450.1,247.8,440,237.6z"/>
</g>
</svg>
