<?xml version="1.0" encoding="utf-8"?>
<!-- Generator: Adobe Illustrator 26.2.1, SVG Export Plug-In . SVG Version: 6.00 Build 0)  -->
<svg version="1.1" id="Layer_1" xmlns="http://www.w3.org/2000/svg" xmlns:xlink="http://www.w3.org/1999/xlink" x="0px" y="0px"
	 viewBox="0 0 496 512" style="enable-background:new 0 0 496 512;" xml:space="preserve">
<path d="M248,18C116.5,18,10,124.5,10,256s106.5,238,238,238s238-106.5,238-238S379.5,18,248,18z M309.1,141.5
	c7.3-10.9,23.7-11.2,31.4,0c11.9,17.7,14.5,35.4,15.1,53.1c-0.5,17.7-3.2,35.4-15.1,53.1c-7.3,10.9-23.7,11.2-31.4,0
	c-11.9-17.7-14.5-35.4-15.1-53.1C294.5,176.9,297.2,159.2,309.1,141.5z M155.6,141.5c7.3-10.9,23.7-11.2,31.4,0
	c11.9,17.7,14.5,35.4,15.1,53.1c-0.5,17.7-3.2,35.4-15.1,53.1c-7.3,10.9-23.7,11.2-31.4,0c-11.9-17.7-14.5-35.4-15.1-53.1
	C141,176.9,143.7,159.2,155.6,141.5z M248,424.9c-58.2,0-129.1-36.8-138-89.5c-1.9-11.3,8.9-20.7,19.9-17.2
	c29,9.3,72.1,14.6,118.1,14.6s89.2-5.3,118.1-14.6c10.9-3.6,21.7,5.9,19.9,17.2C377.1,388.1,306.2,424.9,248,424.9L248,424.9z"/>
</svg>
